Homework 3 Solutions
…
Problem 1

data("instacart")

There are 1384617 rows and 15 columns in the instacart dataset. The data reflects the level of items in orders by user. There are user and order variables such as: user/order ID, order day, and order hour. And, there are item variables such as: product name, aisle, department, and some numeric codes.

How many aisles are there, and which aisles are the most items ordered from?

instacart %>%
  count(aisle) %>%
  arrange(desc(n))

## # A tibble: 134 x 2
##    aisle                              n
##    <chr>                          <int>
##  1 fresh vegetables              150609
##  2 fresh fruits                  150473
##  3 packaged vegetables fruits     78493
##  4 yogurt                         55240
##  5 packaged cheese                41699
##  6 water seltzer sparkling water  36617
##  7 milk                           32644
##  8 chips pretzels                 31269
##  9 soy lactosefree                26240
## 10 bread                          23635
## #  with 124 more rows
…
